module gitlab.com/irshadm/oauth2

go 1.11

require (
	cloud.google.com/go v0.34.0
	golang.org/x/net v0.0.0-20190108225652-1e06a53dbb7e
	golang.org/x/sync v0.0.0-20181221193216-37e7f081c4d4 // indirect
	google.golang.org/appengine v1.4.0
)
